%YAML 1.1
%TAG !u! tag:unity3d.com,2011:
--- !u!1 &1110728439402294254
GameObject:
  m_ObjectHideFlags: 0
  m_CorrespondingSourceObject: {fileID: 0}
  m_PrefabInstance: {fileID: 0}
  m_PrefabAsset: {fileID: 0}
  serializedVersion: 6
  m_Component:
  - component: {fileID: 1110728439402294253}
  m_Layer: 0
  m_Name: Funnel
  m_TagString: Untagged
  m_Icon: {fileID: 0}
  m_NavMeshLayer: 0
  m_StaticEditorFlags: 0
  m_IsActive: 1
--- !u!4 &1110728439402294253
Transform:
  m_ObjectHideFlags: 0
  m_CorrespondingSourceObject: {fileID: 0}
  m_PrefabInstance: {fileID: 0}
  m_PrefabAsset: {fileID: 0}
  m_GameObject: {fileID: 1110728439402294254}
  m_LocalRotation: {x: 0, y: 0, z: 0, w: 1}
  m_LocalPosition: {x: 0, y: 0, z: 0}
  m_LocalScale: {x: 1, y: 1, z: 1}
  m_Children:
  - {fileID: 1888409144685763639}
  - {fileID: 1888409144503819870}
  m_Father: {fileID: 0}
  m_RootOrder: 0
  m_LocalEulerAnglesHint: {x: 0, y: 0, z: 0}
--- !u!1001 &1110728438965732380
PrefabInstance:
  m_ObjectHideFlags: 0
  serializedVersion: 2
  m_Modification:
    m_TransformParent: {fileID: 1110728439402294253}
    m_Modifications:
    - target: {fileID: 1539918527755065387, guid: 81e428c3ba019fa4da8d3bce78ceadf6,
        type: 3}
      propertyPath: m_LocalPosition.x
      value: -1
      objectReference: {fileID: 0}
    - target: {fileID: 1539918527755065387, guid: 81e428c3ba019fa4da8d3bce78ceadf6,
        type: 3}
      propertyPath: m_LocalPosition.y
      value: 0
      objectReference: {fileID: 0}
    - target: {fileID: 1539918527755065387, guid: 81e428c3ba019fa4da8d3bce78ceadf6,
        type: 3}
      propertyPath: m_LocalPosition.z
      value: 0
      objectReference: {fileID: 0}
    - target: {fileID: 1539918527755065387, guid: 81e428c3ba019fa4da8d3bce78ceadf6,
        type: 3}
      propertyPath: m_LocalRotation.x
      value: -0
      objectReference: {fileID: 0}
    - target: {fileID: 1539918527755065387, guid: 81e428c3ba019fa4da8d3bce78ceadf6,
        type: 3}
      propertyPath: m_LocalRotation.y
      value: -0
      objectReference: {fileID: 0}
    - target: {fileID: 1539918527755065387, guid: 81e428c3ba019fa4da8d3bce78ceadf6,
        type: 3}
      propertyPath: m_LocalRotation.z
      value: -0
      objectReference: {fileID: 0}
    - target: {fileID: 1539918527755065387, guid: 81e428c3ba019fa4da8d3bce78ceadf6,
        type: 3}
      propertyPath: m_LocalRotation.w
      value: 1
      objectReference: {fileID: 0}
    - target: {fileID: 1539918527755065387, guid: 81e428c3ba019fa4da8d3bce78ceadf6,
        type: 3}
      propertyPath: m_RootOrder
      value: 0
      objectReference: {fileID: 0}
    - target: {fileID: 1539918527755065387, guid: 81e428c3ba019fa4da8d3bce78ceadf6,
        type: 3}
      propertyPath: m_LocalEulerAnglesHint.x
      value: 0
      objectReference: {fileID: 0}
    - target: {fileID: 1539918527755065387, guid: 81e428c3ba019fa4da8d3bce78ceadf6,
        type: 3}
      propertyPath: m_LocalEulerAnglesHint.y
      value: 0
      objectReference: {fileID: 0}
    - target: {fileID: 1539918527755065387, guid: 81e428c3ba019fa4da8d3bce78ceadf6,
        type: 3}
      propertyPath: m_LocalEulerAnglesHint.z
      value: 0
      objectReference: {fileID: 0}
    - target: {fileID: 2775861963471249252, guid: 81e428c3ba019fa4da8d3bce78ceadf6,
        type: 3}
      propertyPath: m_Name
      value: NonStickTriangle
      objectReference: {fileID: 0}
    - target: {fileID: 8489865872304845350, guid: 81e428c3ba019fa4da8d3bce78ceadf6,
        type: 3}
      propertyPath: m_Size.x
      value: 0.9
      objectReference: {fileID: 0}
    - target: {fileID: 8633515103752160687, guid: 81e428c3ba019fa4da8d3bce78ceadf6,
        type: 3}
      propertyPath: m_SpriteTilingProperty.newSize.x
      value: 0.9
      objectReference: {fileID: 0}
    m_RemovedComponents: []
  m_SourcePrefab: {fileID: 100100000, guid: 81e428c3ba019fa4da8d3bce78ceadf6, type: 3}
--- !u!4 &1888409144685763639 stripped
Transform:
  m_CorrespondingSourceObject: {fileID: 1539918527755065387, guid: 81e428c3ba019fa4da8d3bce78ceadf6,
    type: 3}
  m_PrefabInstance: {fileID: 1110728438965732380}
  m_PrefabAsset: {fileID: 0}
--- !u!1001 &1110728439081322101
PrefabInstance:
  m_ObjectHideFlags: 0
  serializedVersion: 2
  m_Modification:
    m_TransformParent: {fileID: 1110728439402294253}
    m_Modifications:
    - target: {fileID: 1539918527755065387, guid: 81e428c3ba019fa4da8d3bce78ceadf6,
        type: 3}
      propertyPath: m_LocalPosition.x
      value: 1.1
      objectReference: {fileID: 0}
    - target: {fileID: 1539918527755065387, guid: 81e428c3ba019fa4da8d3bce78ceadf6,
        type: 3}
      propertyPath: m_LocalPosition.y
      value: 0
      objectReference: {fileID: 0}
    - target: {fileID: 1539918527755065387, guid: 81e428c3ba019fa4da8d3bce78ceadf6,
        type: 3}
      propertyPath: m_LocalPosition.z
      value: 0
      objectReference: {fileID: 0}
    - target: {fileID: 1539918527755065387, guid: 81e428c3ba019fa4da8d3bce78ceadf6,
        type: 3}
      propertyPath: m_LocalRotation.x
      value: -0
      objectReference: {fileID: 0}
    - target: {fileID: 1539918527755065387, guid: 81e428c3ba019fa4da8d3bce78ceadf6,
        type: 3}
      propertyPath: m_LocalRotation.y
      value: -0
      objectReference: {fileID: 0}
    - target: {fileID: 1539918527755065387, guid: 81e428c3ba019fa4da8d3bce78ceadf6,
        type: 3}
      propertyPath: m_LocalRotation.z
      value: -0
      objectReference: {fileID: 0}
    - target: {fileID: 1539918527755065387, guid: 81e428c3ba019fa4da8d3bce78ceadf6,
        type: 3}
      propertyPath: m_LocalRotation.w
      value: 1
      objectReference: {fileID: 0}
    - target: {fileID: 1539918527755065387, guid: 81e428c3ba019fa4da8d3bce78ceadf6,
        type: 3}
      propertyPath: m_RootOrder
      value: 1
      objectReference: {fileID: 0}
    - target: {fileID: 1539918527755065387, guid: 81e428c3ba019fa4da8d3bce78ceadf6,
        type: 3}
      propertyPath: m_LocalEulerAnglesHint.x
      value: 0
      objectReference: {fileID: 0}
    - target: {fileID: 1539918527755065387, guid: 81e428c3ba019fa4da8d3bce78ceadf6,
        type: 3}
      propertyPath: m_LocalEulerAnglesHint.y
      value: 0
      objectReference: {fileID: 0}
    - target: {fileID: 1539918527755065387, guid: 81e428c3ba019fa4da8d3bce78ceadf6,
        type: 3}
      propertyPath: m_LocalEulerAnglesHint.z
      value: 0
      objectReference: {fileID: 0}
    - target: {fileID: 1539918527755065387, guid: 81e428c3ba019fa4da8d3bce78ceadf6,
        type: 3}
      propertyPath: m_LocalScale.x
      value: -1
      objectReference: {fileID: 0}
    - target: {fileID: 2775861963471249252, guid: 81e428c3ba019fa4da8d3bce78ceadf6,
        type: 3}
      propertyPath: m_Name
      value: NonStickTriangle (1)
      objectReference: {fileID: 0}
    - target: {fileID: 8489865872304845350, guid: 81e428c3ba019fa4da8d3bce78ceadf6,
        type: 3}
      propertyPath: m_Size.x
      value: 0.9
      objectReference: {fileID: 0}
    - target: {fileID: 8633515103752160687, guid: 81e428c3ba019fa4da8d3bce78ceadf6,
        type: 3}
      propertyPath: m_SpriteTilingProperty.newSize.x
      value: 0.9
      objectReference: {fileID: 0}
    m_RemovedComponents: []
  m_SourcePrefab: {fileID: 100100000, guid: 81e428c3ba019fa4da8d3bce78ceadf6, type: 3}
--- !u!4 &1888409144503819870 stripped
Transform:
  m_CorrespondingSourceObject: {fileID: 1539918527755065387, guid: 81e428c3ba019fa4da8d3bce78ceadf6,
    type: 3}
  m_PrefabInstance: {fileID: 1110728439081322101}
  m_PrefabAsset: {fileID: 0}
